{
    "ObjectStates":
        [
            {
                "Name":"DeckCustom",
                "ContainedObjects":
                    [
                        {
                            "CardID":100,
                            "Name":"Card",
                            "Nickname":"Odric, Master Tactician",
                            "Transform":
                                {
                                    "posX":0,
                                    "posY":0,
                                    "posZ":0,
                                    "rotX":0,
                                    "rotY":180,
                                    "rotZ":180,
                                    "scaleX":1,
                                    "scaleY":1,
                                    "scaleZ":1
                                }
                        },
                        {
                            "CardID":200,
                            "Name":"Card",
                            "Nickname":"Whiptongue Hydra",
                            "Transform":
                                {
                                    "posX":0,
                                    "posY":0,
                                    "posZ":0,
                                    "rotX":0,
                                    "rotY":180,
                                    "rotZ":180,
                                    "scaleX":1,
                                    "scaleY":1,
                                    "scaleZ":1
                                }
                        },
                        {
                            "CardID":300,
                            "Name":"Card",
                            "Nickname":"Edric, Spymaster of Trest",
                            "Transform":
                                {
                                    "posX":0,
                                    "posY":0,
                                    "posZ":0,
                                    "rotX":0,
                                    "rotY":180,
                                    "rotZ":180,
                                    "scaleX":1,
                                    "scaleY":1,
                                    "scaleZ":1
                                }
                        },
                        {
                            "CardID":400,
                            "Name":"Card",
                            "Nickname":"Eldrazi Temple",
                            "Transform":
                                {
                                    "posX":0,
                                    "posY":0,
                                    "posZ":0,
                                    "rotX":0,
                                    "rotY":180,
                                    "rotZ":180,
                                    "scaleX":1,
                                    "scaleY":1,
                                    "scaleZ":1
                                }
                        }
                    ],
                        "DeckIDs":
                            [
                                100,
                                200,
                                300,
                                400
                            ],
                        "CustomDeck":
                            {
                                "1":
                                    {
                                        "FaceURL":"https://cards.scryfall.io/large/front/0/0/00111afb-26fe-487b-8d12-087cd8a8fe86.jpg?1591320115",
                                        "BackURL":"https://i.imgur.com/Hg8CwwU.jpeg",
                                        "NumHeight":1,
                                        "NumWidth":1,
                                        "BackIsHidden":true
                                    },
                                "2":
                                    {
                                        "FaceURL":"https://cards.scryfall.io/large/front/0/0/0005c844-787c-4f0c-8d25-85cec151642b.jpg?1592710235",
                                        "BackURL":"https://i.imgur.com/Hg8CwwU.jpeg",
                                        "NumHeight":1,
                                        "NumWidth":1,
                                        "BackIsHidden":true
                                    },
                                "3":{
                                        "FaceURL":"https://cards.scryfall.io/large/front/0/0/0029955b-32a5-4dd8-8a8c-5c80cdfd13aa.jpg?1562864258",
                                        "BackURL":"https://i.imgur.com/Hg8CwwU.jpeg",
                                        "NumHeight":1,
                                        "NumWidth":1,
                                        "BackIsHidden":true
                                    },
                                "4":
                                    {
                                        "FaceURL":"https://cards.scryfall.io/large/front/0/0/00372c7a-2e83-4a26-9642-0d092dfcf861.jpg?1682690583",
                                        "BackURL":"https://i.imgur.com/Hg8CwwU.jpeg",
                                        "NumHeight":1,
                                        "NumWidth":1,
                                        "BackIsHidden":true
                                    }
                            },
                        "Transform":
                            {
                                "posX":0,
                                "posY":1,
                                "posZ":0,
                                "rotX":0,
                                "rotY":180,
                                "rotZ":180,
                                "scaleX":1,
                                "scaleY":1,
                                "scaleZ":1
                            }
            }
        ]
    }
