[
  [
    {
      "name": "PantheraMan",
      "card_class": "Staunch",
      "hero_id": "PM1",
      "series_name": "PantheraMan//Nature//Brawler",
      "card_number": 1001,
      "enthusiasm": 0,
      "effect_text": "Deal 2 damage to a foe who has yet to go this round. If you are first to go this round or you have the highest Enthusiasm, draw 1 Pluck and gain 2 HP.",
      "second_effect_text": null,
      "illustrator": "XIOLI",
      "picture_url": "https://kornan.dreamhosters.com/i1g1pmf/",
      "file_name": "i1g1pmf",
      "card_type": [
        "64079ed6b2b376b6cd0454f5"
      ],
      "extra_effects": [],
      "reactions": [
        "6407a0a9c503d0c6f5a33232"
      ],
      "card_tags": [
        "6407a27fc503d0c6f5a33233"
      ],
      "id": "6407a2c0c503d0c6f5a33235",
      "count": null
    },
    {
      "name": "PantheraMan",
      "card_class": "Staunch",
      "hero_id": "PM1",
      "series_name": "PantheraMan//Nature//Brawler",
      "card_number": 1001,
      "enthusiasm": 0,
      "effect_text": "Deal 2 damage to a foe who has yet to go this round. If you are first to go this round or you have the highest Enthusiasm, draw 1 Pluck and gain 2 HP.",
      "second_effect_text": null,
      "illustrator": "XIOLI",
      "picture_url": "https://kornan.dreamhosters.com/i1g1pmf/",
      "file_name": "i1g1pmf",
      "card_type": [
        "64079ed6b2b376b6cd0454f5"
      ],
      "extra_effects": [],
      "reactions": [
        "6407a0a9c503d0c6f5a33232"
      ],
      "card_tags": [
        "6407a27fc503d0c6f5a33233"
      ],
      "id": "6407a2c0c503d0c6f5a33235",
      "count": null
    },
    {
      "name": "Boisterous Call!",
      "card_class": "Staunch",
      "hero_id": "PM1",
      "series_name": "PantheraMan//Nature//Brawler//Call",
      "card_number": 1002,
      "enthusiasm": 0,
      "effect_text": "Gain 1 HP and add 4 to your Focus.",
      "second_effect_text": "<Trigger> At the start of the round, add 4 to your Enthusiasm and resolve this Aura in your play.",
      "illustrator": "XIOLI",
      "picture_url": "https://kornan.dreamhosters.com/i1g1pma",
      "file_name": "",
      "card_type": [
        "6407bb289b4fb23f5ddab698"
      ],
      "extra_effects": [
        "64079f10b2b376b6cd0454f6"
      ],
      "reactions": [],
      "card_tags": [
        "6407a27fc503d0c6f5a33233"
      ],
      "id": "6413a629b00a31a52c1b9b13",
      "count": null
    },
    {
      "name": "Boisterous Call!",
      "card_class": "Staunch",
      "hero_id": "PM1",
      "series_name": "PantheraMan//Nature//Brawler//Call",
      "card_number": 1002,
      "enthusiasm": 0,
      "effect_text": "Gain 1 HP and add 4 to your Focus.",
      "second_effect_text": "<Trigger> At the start of the round, add 4 to your Enthusiasm and resolve this Aura in your play.",
      "illustrator": "XIOLI",
      "picture_url": "https://kornan.dreamhosters.com/i1g1pma",
      "file_name": "",
      "card_type": [
        "6407bb289b4fb23f5ddab698"
      ],
      "extra_effects": [
        "64079f10b2b376b6cd0454f6"
      ],
      "reactions": [],
      "card_tags": [
        "6407a27fc503d0c6f5a33233"
      ],
      "id": "6413a629b00a31a52c1b9b13",
      "count": null
    },
    {
      "name": "Feasting Claw!!",
      "card_class": "Staunch",
      "hero_id": "PM1",
      "series_name": "PantheraMan//Nature//Brawler",
      "card_number": 1003,
      "enthusiasm": 0,
      "effect_text": "Deal 2 damage to a foe and gain 1 HP. If you are first to go this round or have the highest Enthusiasm, deal 2 additional damage and gain 1 HP.",
      "second_effect_text": "",
      "illustrator": "XIOLI",
      "picture_url": "https://kornan.dreamhosters.com/i1g1pmm",
      "file_name": "",
      "card_type": [
        "6407a3bbc503d0c6f5a33238"
      ],
      "extra_effects": [],
      "reactions": [],
      "card_tags": [
        "6407a27fc503d0c6f5a33233"
      ],
      "id": "6413a6a7b00a31a52c1b9b32",
      "count": null
    },
    {
      "name": "Feasting Claw!!",
      "card_class": "Staunch",
      "hero_id": "PM1",
      "series_name": "PantheraMan//Nature//Brawler",
      "card_number": 1003,
      "enthusiasm": 0,
      "effect_text": "Deal 2 damage to a foe and gain 1 HP. If you are first to go this round or have the highest Enthusiasm, deal 2 additional damage and gain 1 HP.",
      "second_effect_text": "",
      "illustrator": "XIOLI",
      "picture_url": "https://kornan.dreamhosters.com/i1g1pmm",
      "file_name": "",
      "card_type": [
        "6407a3bbc503d0c6f5a33238"
      ],
      "extra_effects": [],
      "reactions": [],
      "card_tags": [
        "6407a27fc503d0c6f5a33233"
      ],
      "id": "6413a6a7b00a31a52c1b9b32",
      "count": null
    },
    {
      "name": "Black Claw Divide!!!",
      "card_class": "Staunch",
      "hero_id": "PM1",
      "series_name": "PantheraMan//Nature//Brawler",
      "card_number": 1004,
      "enthusiasm": 17,
      "effect_text": "<Target> Foe who has yet to go this round. //<1-5> Deal 1 damage. //<6-11> Deal 3 piercing damage. //<12+> Deal 4 piercing damage. The next player's Move(s) and Ending(s) gain damage minus 1 (damage dealt by those cards is reduced by 1 at the end of their resolutions).",
      "second_effect_text": "",
      "illustrator": "XIOLI",
      "picture_url": "https://kornan.dreamhosters.com/i1g1pme",
      "file_name": "i1g1pme",
      "card_type": [
        "640ce41c5f6730657ad8739f"
      ],
      "extra_effects": [],
      "reactions": [],
      "card_tags": [
        "6407a29bc503d0c6f5a33234",
        "6407a27fc503d0c6f5a33233"
      ],
      "id": "6413a730b00a31a52c1b9b47",
      "count": null
    },
    {
      "name": "Black Claw Divide!!!",
      "card_class": "Staunch",
      "hero_id": "PM1",
      "series_name": "PantheraMan//Nature//Brawler",
      "card_number": 1004,
      "enthusiasm": 17,
      "effect_text": "<Target> Foe who has yet to go this round. //<1-5> Deal 1 damage. //<6-11> Deal 3 piercing damage. //<12+> Deal 4 piercing damage. The next player's Move(s) and Ending(s) gain damage minus 1 (damage dealt by those cards is reduced by 1 at the end of their resolutions).",
      "second_effect_text": "",
      "illustrator": "XIOLI",
      "picture_url": "https://kornan.dreamhosters.com/i1g1pme",
      "file_name": "i1g1pme",
      "card_type": [
        "640ce41c5f6730657ad8739f"
      ],
      "extra_effects": [],
      "reactions": [],
      "card_tags": [
        "6407a29bc503d0c6f5a33234",
        "6407a27fc503d0c6f5a33233"
      ],
      "id": "6413a730b00a31a52c1b9b47",
      "count": null
    },
    {
      "name": "Jet and Climber",
      "card_class": "Unity",
      "hero_id": "DW1",
      "series_name": "Project HERMES//Tech//Tactical//Team",
      "card_number": 1033,
      "enthusiasm": 0,
      "effect_text": "Add 1 Move from your hand to your play. Draw 1 card and reveal it; if the card is a Move or MAX VARIABLE, add it to your play (MAX VARIABLE counts as a Move).\n\n\n",
      "second_effect_text": "",
      "illustrator": "Undeadsushii",
      "picture_url": "https://kornan.dreamhosters.com/i1b1dwf/",
      "file_name": "i1b1dwf",
      "card_type": [
        "64079ed6b2b376b6cd0454f5"
      ],
      "extra_effects": [],
      "reactions": [
        "6407a0a9c503d0c6f5a33232"
      ],
      "card_tags": [
        "6407a27fc503d0c6f5a33233"
      ],
      "id": "6410a5fabaeb0bbfb51492b3",
      "count": null
    },
    {
      "name": "Jet and Climber",
      "card_class": "Unity",
      "hero_id": "DW1",
      "series_name": "Project HERMES//Tech//Tactical//Team",
      "card_number": 1033,
      "enthusiasm": 0,
      "effect_text": "Add 1 Move from your hand to your play. Draw 1 card and reveal it; if the card is a Move or MAX VARIABLE, add it to your play (MAX VARIABLE counts as a Move).\n\n\n",
      "second_effect_text": "",
      "illustrator": "Undeadsushii",
      "picture_url": "https://kornan.dreamhosters.com/i1b1dwf/",
      "file_name": "i1b1dwf",
      "card_type": [
        "64079ed6b2b376b6cd0454f5"
      ],
      "extra_effects": [],
      "reactions": [
        "6407a0a9c503d0c6f5a33232"
      ],
      "card_tags": [
        "6407a27fc503d0c6f5a33233"
      ],
      "id": "6410a5fabaeb0bbfb51492b3",
      "count": null
    },
    {
      "name": "Double Combatants!",
      "card_class": "Unity",
      "hero_id": "DW1",
      "series_name": "Project HERMES//Tech//Tactical//Team",
      "card_number": 1034,
      "enthusiasm": 0,
      "effect_text": "Draw 1 card. If you have a Fighter in your play, it is now defending. Add 1 Fighter from your hand to your play.",
      "second_effect_text": "",
      "illustrator": "Undeadsushii",
      "picture_url": "https://kornan.dreamhosters.com/i1b1dwa/",
      "file_name": "i1b1dwa",
      "card_type": [
        "6407bb289b4fb23f5ddab698"
      ],
      "extra_effects": [],
      "reactions": [],
      "card_tags": [
        "6407a27fc503d0c6f5a33233"
      ],
      "id": "64109f06159c81c7afebd119",
      "count": null
    },
    {
      "name": "Double Combatants!",
      "card_class": "Unity",
      "hero_id": "DW1",
      "series_name": "Project HERMES//Tech//Tactical//Team",
      "card_number": 1034,
      "enthusiasm": 0,
      "effect_text": "Draw 1 card. If you have a Fighter in your play, it is now defending. Add 1 Fighter from your hand to your play.",
      "second_effect_text": "",
      "illustrator": "Undeadsushii",
      "picture_url": "https://kornan.dreamhosters.com/i1b1dwa/",
      "file_name": "i1b1dwa",
      "card_type": [
        "6407bb289b4fb23f5ddab698"
      ],
      "extra_effects": [],
      "reactions": [],
      "card_tags": [
        "6407a27fc503d0c6f5a33233"
      ],
      "id": "64109f06159c81c7afebd119",
      "count": null
    },
    {
      "name": "Dual Wing Strike!!",
      "card_class": "Unity",
      "hero_id": "DW1",
      "series_name": "Project HERMES//Tech//Tactical//Team",
      "card_number": 1035,
      "enthusiasm": 0,
      "effect_text": "<Target> Your strongest foe. //<1-5> Deal 2 damage. //<6-11> Deal 2 damage. Draw 1 card. //<12+> Deal 2 damage plus 1 additional damage for each card in your play past 4. Add 1 Unity card from the discard pile to your hand.",
      "second_effect_text": "",
      "illustrator": "Undeadsushii",
      "picture_url": "https://kornan.dreamhosters.com/i1b1dwm/",
      "file_name": "i1b1dwm",
      "card_type": [
        "6407a3bbc503d0c6f5a33238"
      ],
      "extra_effects": [],
      "reactions": [],
      "card_tags": [
        "6407a29bc503d0c6f5a33234",
        "6407a27fc503d0c6f5a33233"
      ],
      "id": "6410a48cb100cf99372ee885",
      "count": null
    },
    {
      "name": "Dual Wing Strike!!",
      "card_class": "Unity",
      "hero_id": "DW1",
      "series_name": "Project HERMES//Tech//Tactical//Team",
      "card_number": 1035,
      "enthusiasm": 0,
      "effect_text": "<Target> Your strongest foe. //<1-5> Deal 2 damage. //<6-11> Deal 2 damage. Draw 1 card. //<12+> Deal 2 damage plus 1 additional damage for each card in your play past 4. Add 1 Unity card from the discard pile to your hand.",
      "second_effect_text": "",
      "illustrator": "Undeadsushii",
      "picture_url": "https://kornan.dreamhosters.com/i1b1dwm/",
      "file_name": "i1b1dwm",
      "card_type": [
        "6407a3bbc503d0c6f5a33238"
      ],
      "extra_effects": [],
      "reactions": [],
      "card_tags": [
        "6407a29bc503d0c6f5a33234",
        "6407a27fc503d0c6f5a33233"
      ],
      "id": "6410a48cb100cf99372ee885",
      "count": null
    },
    {
      "name": "Dive Bomb Finisher!!!",
      "card_class": "Unity",
      "hero_id": "DW1",
      "series_name": "Project HERMES//Tech//Tactical//Team",
      "card_number": 1036,
      "enthusiasm": 20,
      "effect_text": "<Target> Your weakest foe. //<1-5> Deal 1 damage. //<6-11> Deal 3 damage. //<12+> Deal 1 damage for each card in your play. Return 1 other card in your play to your hand.\n\n\n",
      "second_effect_text": "",
      "illustrator": "Undeadsushii",
      "picture_url": "https://kornan.dreamhosters.com/i1b1dwe/",
      "file_name": "i1b1dwe",
      "card_type": [
        "640ce41c5f6730657ad8739f"
      ],
      "extra_effects": [],
      "reactions": [],
      "card_tags": [
        "6407a29bc503d0c6f5a33234",
        "6407a27fc503d0c6f5a33233"
      ],
      "id": "6410aaa0baeb0bbfb51492ba",
      "count": null
    },
    {
      "name": "Dive Bomb Finisher!!!",
      "card_class": "Unity",
      "hero_id": "DW1",
      "series_name": "Project HERMES//Tech//Tactical//Team",
      "card_number": 1036,
      "enthusiasm": 20,
      "effect_text": "<Target> Your weakest foe. //<1-5> Deal 1 damage. //<6-11> Deal 3 damage. //<12+> Deal 1 damage for each card in your play. Return 1 other card in your play to your hand.\n\n\n",
      "second_effect_text": "",
      "illustrator": "Undeadsushii",
      "picture_url": "https://kornan.dreamhosters.com/i1b1dwe/",
      "file_name": "i1b1dwe",
      "card_type": [
        "640ce41c5f6730657ad8739f"
      ],
      "extra_effects": [],
      "reactions": [],
      "card_tags": [
        "6407a29bc503d0c6f5a33234",
        "6407a27fc503d0c6f5a33233"
      ],
      "id": "6410aaa0baeb0bbfb51492ba",
      "count": null
    },
    {
      "name": "Black Note",
      "card_class": "Canny",
      "hero_id": "BN1",
      "series_name": "Black Note//Altered//Quest//Call",
      "card_number": 1049,
      "enthusiasm": 0,
      "effect_text": "All players and their Fighters take 1 damage. Add 3 to your Focus.",
      "second_effect_text": "<Trigger> At the start of the round or when this card is revealed, damage you and this card take is reduced by 1.\n\n\n",
      "illustrator": "ahtan_delmundo",
      "picture_url": "https://kornan.dreamhosters.com/i1p1bnf",
      "file_name": "i1p1bnf",
      "card_type": [
        "64079ed6b2b376b6cd0454f5"
      ],
      "extra_effects": [
        "64079f10b2b376b6cd0454f6",
        "64079f5db2b376b6cd0454f7"
      ],
      "reactions": [
        "6407a068c503d0c6f5a33231",
        "6407a068c503d0c6f5a33231"
      ],
      "card_tags": [
        "6407a27fc503d0c6f5a33233"
      ],
      "id": "6413a82fb00a31a52c1b9b6e",
      "count": null
    },
    {
      "name": "Black Note",
      "card_class": "Canny",
      "hero_id": "BN1",
      "series_name": "Black Note//Altered//Quest//Call",
      "card_number": 1049,
      "enthusiasm": 0,
      "effect_text": "All players and their Fighters take 1 damage. Add 3 to your Focus.",
      "second_effect_text": "<Trigger> At the start of the round or when this card is revealed, damage you and this card take is reduced by 1.\n\n\n",
      "illustrator": "ahtan_delmundo",
      "picture_url": "https://kornan.dreamhosters.com/i1p1bnf",
      "file_name": "i1p1bnf",
      "card_type": [
        "64079ed6b2b376b6cd0454f5"
      ],
      "extra_effects": [
        "64079f10b2b376b6cd0454f6",
        "64079f5db2b376b6cd0454f7"
      ],
      "reactions": [
        "6407a068c503d0c6f5a33231",
        "6407a068c503d0c6f5a33231"
      ],
      "card_tags": [
        "6407a27fc503d0c6f5a33233"
      ],
      "id": "6413a82fb00a31a52c1b9b6e",
      "count": null
    },
    {
      "name": "Debilitating Sound!",
      "card_class": "Canny",
      "hero_id": "BN1",
      "series_name": "Black Note//Altered//Quest//Call",
      "card_number": 1050,
      "enthusiasm": 0,
      "effect_text": "All players discard 1 Move from their play. If your play did not have a Move before the resolution of this card's effect, resolve 1 of the discarded Moves as this card's effect.",
      "second_effect_text": "",
      "illustrator": "ahtan_delmundo",
      "picture_url": "https://kornan.dreamhosters.com/i1p1bna",
      "file_name": "i1p1bna",
      "card_type": [
        "6407bb289b4fb23f5ddab698"
      ],
      "extra_effects": [],
      "reactions": [],
      "card_tags": [
        "6407a27fc503d0c6f5a33233"
      ],
      "id": "6413aa1bb00a31a52c1b9bb1",
      "count": null
    },
    {
      "name": "Debilitating Sound!",
      "card_class": "Canny",
      "hero_id": "BN1",
      "series_name": "Black Note//Altered//Quest//Call",
      "card_number": 1050,
      "enthusiasm": 0,
      "effect_text": "All players discard 1 Move from their play. If your play did not have a Move before the resolution of this card's effect, resolve 1 of the discarded Moves as this card's effect.",
      "second_effect_text": "",
      "illustrator": "ahtan_delmundo",
      "picture_url": "https://kornan.dreamhosters.com/i1p1bna",
      "file_name": "i1p1bna",
      "card_type": [
        "6407bb289b4fb23f5ddab698"
      ],
      "extra_effects": [],
      "reactions": [],
      "card_tags": [
        "6407a27fc503d0c6f5a33233"
      ],
      "id": "6413aa1bb00a31a52c1b9bb1",
      "count": null
    },
    {
      "name": "Super Sonic Riff!!",
      "card_class": "Canny",
      "hero_id": "BN1",
      "series_name": "Black Note//Altered//Quest//Call",
      "card_number": 1051,
      "enthusiasm": 0,
      "effect_text": "Deal 3 damage to a random foe and you take 2 damage.",
      "second_effect_text": "<Trigger> At the start of the round, resolve this Move in your play, then discard it. ",
      "illustrator": "ahtan_delmundo",
      "picture_url": "https://kornan.dreamhosters.com/i1p1bnm",
      "file_name": "i1p1bnm",
      "card_type": [
        "6407a3bbc503d0c6f5a33238"
      ],
      "extra_effects": [
        "64079f10b2b376b6cd0454f6"
      ],
      "reactions": [],
      "card_tags": [
        "6407a27fc503d0c6f5a33233"
      ],
      "id": "6413aa91b00a31a52c1b9bc8",
      "count": null
    },
    {
      "name": "Super Sonic Riff!!",
      "card_class": "Canny",
      "hero_id": "BN1",
      "series_name": "Black Note//Altered//Quest//Call",
      "card_number": 1051,
      "enthusiasm": 0,
      "effect_text": "Deal 3 damage to a random foe and you take 2 damage.",
      "second_effect_text": "<Trigger> At the start of the round, resolve this Move in your play, then discard it. ",
      "illustrator": "ahtan_delmundo",
      "picture_url": "https://kornan.dreamhosters.com/i1p1bnm",
      "file_name": "i1p1bnm",
      "card_type": [
        "6407a3bbc503d0c6f5a33238"
      ],
      "extra_effects": [
        "64079f10b2b376b6cd0454f6"
      ],
      "reactions": [],
      "card_tags": [
        "6407a27fc503d0c6f5a33233"
      ],
      "id": "6413aa91b00a31a52c1b9bc8",
      "count": null
    },
    {
      "name": "Max Reverb!!!",
      "card_class": "Canny",
      "hero_id": "BN1",
      "series_name": "Black Note//Altered//Quest//Call",
      "card_number": 1052,
      "enthusiasm": 5,
      "effect_text": "<Target> All foes. If you are at 8 HP or less, add 3 to your Focus. //<1-5> Deal 2 piercing damage. Take 4 damage. //<6-11> Deal 3 piercing damage. Take 3 damage. //<12+> Deal 4 piercing damage and ignore the reaction(s) of defending Fighter(s). Take 2 damage.",
      "second_effect_text": "",
      "illustrator": "ahtan_delmundo",
      "picture_url": "https://kornan.dreamhosters.com/i1p1bne",
      "file_name": "i1p1bne",
      "card_type": [
        "640ce41c5f6730657ad8739f"
      ],
      "extra_effects": [],
      "reactions": [],
      "card_tags": [
        "6407a29bc503d0c6f5a33234",
        "6407a27fc503d0c6f5a33233"
      ],
      "id": "6413ab47b00a31a52c1b9be7",
      "count": null
    },
    {
      "name": "Max Reverb!!!",
      "card_class": "Canny",
      "hero_id": "BN1",
      "series_name": "Black Note//Altered//Quest//Call",
      "card_number": 1052,
      "enthusiasm": 5,
      "effect_text": "<Target> All foes. If you are at 8 HP or less, add 3 to your Focus. //<1-5> Deal 2 piercing damage. Take 4 damage. //<6-11> Deal 3 piercing damage. Take 3 damage. //<12+> Deal 4 piercing damage and ignore the reaction(s) of defending Fighter(s). Take 2 damage.",
      "second_effect_text": "",
      "illustrator": "ahtan_delmundo",
      "picture_url": "https://kornan.dreamhosters.com/i1p1bne",
      "file_name": "i1p1bne",
      "card_type": [
        "640ce41c5f6730657ad8739f"
      ],
      "extra_effects": [],
      "reactions": [],
      "card_tags": [
        "6407a29bc503d0c6f5a33234",
        "6407a27fc503d0c6f5a33233"
      ],
      "id": "6413ab47b00a31a52c1b9be7",
      "count": null
    },
    {
      "name": "Gravity Enforcer",
      "card_class": "Canny",
      "hero_id": "GE1",
      "series_name": "Gravity Enforcer//Cosmic//Tactical",
      "card_number": 1061,
      "enthusiasm": 0,
      "effect_text": "Foes with Enthusiasm lower than yours can not use reactions. Deal 2 damage to the foe with the lowest Enthusiasm.",
      "second_effect_text": "<Trigger> At the start of the round or when this card is revealed, lower the Enthusiasm of all foes by 4.",
      "illustrator": "betomirandaart2",
      "picture_url": "https://kornan.dreamhosters.com/i1p4gef",
      "file_name": "i1p4gef",
      "card_type": [
        "64079ed6b2b376b6cd0454f5"
      ],
      "extra_effects": [
        "64079f10b2b376b6cd0454f6"
      ],
      "reactions": [
        "64079f9fb2b376b6cd0454f8"
      ],
      "card_tags": [
        "6407a27fc503d0c6f5a33233"
      ],
      "id": "6413ac2fb00a31a52c1b9c06",
      "count": null
    },
    {
      "name": "Gravity Enforcer",
      "card_class": "Canny",
      "hero_id": "GE1",
      "series_name": "Gravity Enforcer//Cosmic//Tactical",
      "card_number": 1061,
      "enthusiasm": 0,
      "effect_text": "Foes with Enthusiasm lower than yours can not use reactions. Deal 2 damage to the foe with the lowest Enthusiasm.",
      "second_effect_text": "<Trigger> At the start of the round or when this card is revealed, lower the Enthusiasm of all foes by 4.",
      "illustrator": "betomirandaart2",
      "picture_url": "https://kornan.dreamhosters.com/i1p4gef",
      "file_name": "i1p4gef",
      "card_type": [
        "64079ed6b2b376b6cd0454f5"
      ],
      "extra_effects": [
        "64079f10b2b376b6cd0454f6"
      ],
      "reactions": [
        "64079f9fb2b376b6cd0454f8"
      ],
      "card_tags": [
        "6407a27fc503d0c6f5a33233"
      ],
      "id": "6413ac2fb00a31a52c1b9c06",
      "count": null
    },
    {
      "name": "Heavy Aura!",
      "card_class": "Canny",
      "hero_id": "GE1",
      "series_name": "Gravity Enforcer//Cosmic//Tactical",
      "card_number": 1062,
      "enthusiasm": 0,
      "effect_text": "All foes with Enthusiasm lower than yours take 1 damage after resolving the effect of their Move(s).",
      "second_effect_text": "<Trigger> At the start of the round, lower the Enthusiasm of all foes by 4.",
      "illustrator": "betomirandaart2",
      "picture_url": "https://kornan.dreamhosters.com/i1p4gea",
      "file_name": "i1p4gea",
      "card_type": [
        "6407bb289b4fb23f5ddab698"
      ],
      "extra_effects": [
        "64079f10b2b376b6cd0454f6"
      ],
      "reactions": [],
      "card_tags": [
        "6407a27fc503d0c6f5a33233"
      ],
      "id": "6413ad2bb00a31a52c1b9c3d",
      "count": null
    },
    {
      "name": "Heavy Aura!",
      "card_class": "Canny",
      "hero_id": "GE1",
      "series_name": "Gravity Enforcer//Cosmic//Tactical",
      "card_number": 1062,
      "enthusiasm": 0,
      "effect_text": "All foes with Enthusiasm lower than yours take 1 damage after resolving the effect of their Move(s).",
      "second_effect_text": "<Trigger> At the start of the round, lower the Enthusiasm of all foes by 4.",
      "illustrator": "betomirandaart2",
      "picture_url": "https://kornan.dreamhosters.com/i1p4gea",
      "file_name": "i1p4gea",
      "card_type": [
        "6407bb289b4fb23f5ddab698"
      ],
      "extra_effects": [
        "64079f10b2b376b6cd0454f6"
      ],
      "reactions": [],
      "card_tags": [
        "6407a27fc503d0c6f5a33233"
      ],
      "id": "6413ad2bb00a31a52c1b9c3d",
      "count": null
    },
    {
      "name": "Heavy Radius!!",
      "card_class": "Canny",
      "hero_id": "GE1",
      "series_name": "Gravity Enforcer//Cosmic//Tactical",
      "card_number": 1063,
      "enthusiasm": 0,
      "effect_text": "Trigger effects can not be used in response to this card. Deal 3 damage to a foe with Enthusiasm lower than yours. They can not use Items or trigger effects during the next player's turn. ",
      "second_effect_text": "",
      "illustrator": "betomirandaart2",
      "picture_url": "https://kornan.dreamhosters.com/i1p4gem",
      "file_name": "i1p4gem",
      "card_type": [
        "6407a3bbc503d0c6f5a33238"
      ],
      "extra_effects": [],
      "reactions": [],
      "card_tags": [
        "6407a27fc503d0c6f5a33233"
      ],
      "id": "6413adb6b00a31a52c1b9c58",
      "count": null
    },
    {
      "name": "Heavy Radius!!",
      "card_class": "Canny",
      "hero_id": "GE1",
      "series_name": "Gravity Enforcer//Cosmic//Tactical",
      "card_number": 1063,
      "enthusiasm": 0,
      "effect_text": "Trigger effects can not be used in response to this card. Deal 3 damage to a foe with Enthusiasm lower than yours. They can not use Items or trigger effects during the next player's turn. ",
      "second_effect_text": "",
      "illustrator": "betomirandaart2",
      "picture_url": "https://kornan.dreamhosters.com/i1p4gem",
      "file_name": "i1p4gem",
      "card_type": [
        "6407a3bbc503d0c6f5a33238"
      ],
      "extra_effects": [],
      "reactions": [],
      "card_tags": [
        "6407a27fc503d0c6f5a33233"
      ],
      "id": "6413adb6b00a31a52c1b9c58",
      "count": null
    },
    {
      "name": "Infinity Mass Press!!!",
      "card_class": "Canny",
      "hero_id": "GE1",
      "series_name": "Gravity Enforcer//Cosmic//Tactical",
      "card_number": 1064,
      "enthusiasm": 14,
      "effect_text": "Reduce the Focus of all foes by 3.",
      "second_effect_text": "<Target> Foe with Enthusiasm lower than yours. //<1-5> No effect. //<6-11> Deal 3 damage. //<12+> Deal damage equal to the difference (max of 6).",
      "illustrator": "betomirandaart2",
      "picture_url": "https://kornan.dreamhosters.com/i1p4gee",
      "file_name": "i1p4gee",
      "card_type": [
        "640ce41c5f6730657ad8739f"
      ],
      "extra_effects": [],
      "reactions": [],
      "card_tags": [
        "6407a29bc503d0c6f5a33234",
        "6407a27fc503d0c6f5a33233"
      ],
      "id": "6413b79db00a31a52c1b9c77",
      "count": null
    },
    {
      "name": "Infinity Mass Press!!!",
      "card_class": "Canny",
      "hero_id": "GE1",
      "series_name": "Gravity Enforcer//Cosmic//Tactical",
      "card_number": 1064,
      "enthusiasm": 14,
      "effect_text": "Reduce the Focus of all foes by 3.",
      "second_effect_text": "<Target> Foe with Enthusiasm lower than yours. //<1-5> No effect. //<6-11> Deal 3 damage. //<12+> Deal damage equal to the difference (max of 6).",
      "illustrator": "betomirandaart2",
      "picture_url": "https://kornan.dreamhosters.com/i1p4gee",
      "file_name": "i1p4gee",
      "card_type": [
        "640ce41c5f6730657ad8739f"
      ],
      "extra_effects": [],
      "reactions": [],
      "card_tags": [
        "6407a29bc503d0c6f5a33234",
        "6407a27fc503d0c6f5a33233"
      ],
      "id": "6413b79db00a31a52c1b9c77",
      "count": null
    },
    {
      "name": "MAX VARIABLE",
      "card_class": "",
      "hero_id": "MV1",
      "series_name": "MAX VARIABLE",
      "card_number": 1065,
      "enthusiasm": 0,
      "effect_text": "Unfurl 4 cards (reveal 4 cards from the top of the Main deck). Add 1 card that matches the type MAX VARIABLE is replacing to your play and add 2 of the other unfurled cards to your hand. Discard MAX VARIABLE and the last unfurled card.",
      "second_effect_text": "",
      "illustrator": "mvthwus",
      "picture_url": "https://kornan.dreamhosters.com/i1rb1mv/",
      "file_name": "",
      "card_type": [
        "64108e0e159c81c7afebd105"
      ],
      "extra_effects": [],
      "reactions": [],
      "card_tags": [
        "6407ac305139f66679d6ac54"
      ],
      "id": "64130de7b00a31a52c1b98bf",
      "count": null
    },
    {
      "name": "MAX VARIABLE",
      "card_class": "",
      "hero_id": "MV1",
      "series_name": "MAX VARIABLE",
      "card_number": 1065,
      "enthusiasm": 0,
      "effect_text": "Unfurl 4 cards (reveal 4 cards from the top of the Main deck). Add 1 card that matches the type MAX VARIABLE is replacing to your play and add 2 of the other unfurled cards to your hand. Discard MAX VARIABLE and the last unfurled card.",
      "second_effect_text": "",
      "illustrator": "mvthwus",
      "picture_url": "https://kornan.dreamhosters.com/i1rb1mv/",
      "file_name": "",
      "card_type": [
        "64108e0e159c81c7afebd105"
      ],
      "extra_effects": [],
      "reactions": [],
      "card_tags": [
        "6407ac305139f66679d6ac54"
      ],
      "id": "64130de7b00a31a52c1b98bf",
      "count": null
    },
    {
      "name": "MAX VARIABLE",
      "card_class": "",
      "hero_id": "MV1",
      "series_name": "MAX VARIABLE",
      "card_number": 1065,
      "enthusiasm": 0,
      "effect_text": "Unfurl 4 cards (reveal 4 cards from the top of the Main deck). Add 1 card that matches the type MAX VARIABLE is replacing to your play and add 2 of the other unfurled cards to your hand. Discard MAX VARIABLE and the last unfurled card.",
      "second_effect_text": "",
      "illustrator": "mvthwus",
      "picture_url": "https://kornan.dreamhosters.com/i1rb1mv/",
      "file_name": "",
      "card_type": [
        "64108e0e159c81c7afebd105"
      ],
      "extra_effects": [],
      "reactions": [],
      "card_tags": [
        "6407ac305139f66679d6ac54"
      ],
      "id": "64130de7b00a31a52c1b98bf",
      "count": null
    },
    {
      "name": "MAX VARIABLE",
      "card_class": "",
      "hero_id": "MV1",
      "series_name": "MAX VARIABLE",
      "card_number": 1065,
      "enthusiasm": 0,
      "effect_text": "Unfurl 4 cards (reveal 4 cards from the top of the Main deck). Add 1 card that matches the type MAX VARIABLE is replacing to your play and add 2 of the other unfurled cards to your hand. Discard MAX VARIABLE and the last unfurled card.",
      "second_effect_text": "",
      "illustrator": "mvthwus",
      "picture_url": "https://kornan.dreamhosters.com/i1rb1mv/",
      "file_name": "",
      "card_type": [
        "64108e0e159c81c7afebd105"
      ],
      "extra_effects": [],
      "reactions": [],
      "card_tags": [
        "6407ac305139f66679d6ac54"
      ],
      "id": "64130de7b00a31a52c1b98bf",
      "count": null
    },
    {
      "name": "MAX VARIABLE #2",
      "card_class": "",
      "hero_id": "MV1",
      "series_name": "MAX VARIABLE",
      "card_number": 1066,
      "enthusiasm": 0,
      "effect_text": "                \nUnfurl 2 cards (reveal 2 cards from the top of the Main deck). Add 1 to your play and discard the other. If the added card matches the type MAX VARIABLE is replacing, draw 1 Pluck. Discard MAX VARIABLE.",
      "second_effect_text": "",
      "illustrator": "Dalfovo",
      "picture_url": "https://kornan.dreamhosters.com/i1rb1mvn2/",
      "file_name": "",
      "card_type": [
        "64108e0e159c81c7afebd105"
      ],
      "extra_effects": [],
      "reactions": [],
      "card_tags": [
        "6407ac305139f66679d6ac54"
      ],
      "id": "64130eabb00a31a52c1b98d6",
      "count": null
    },
    {
      "name": "MAX VARIABLE #2",
      "card_class": "",
      "hero_id": "MV1",
      "series_name": "MAX VARIABLE",
      "card_number": 1066,
      "enthusiasm": 0,
      "effect_text": "                \nUnfurl 2 cards (reveal 2 cards from the top of the Main deck). Add 1 to your play and discard the other. If the added card matches the type MAX VARIABLE is replacing, draw 1 Pluck. Discard MAX VARIABLE.",
      "second_effect_text": "",
      "illustrator": "Dalfovo",
      "picture_url": "https://kornan.dreamhosters.com/i1rb1mvn2/",
      "file_name": "",
      "card_type": [
        "64108e0e159c81c7afebd105"
      ],
      "extra_effects": [],
      "reactions": [],
      "card_tags": [
        "6407ac305139f66679d6ac54"
      ],
      "id": "64130eabb00a31a52c1b98d6",
      "count": null
    },
    {
      "name": "MAX VARIABLE #2",
      "card_class": "",
      "hero_id": "MV1",
      "series_name": "MAX VARIABLE",
      "card_number": 1066,
      "enthusiasm": 0,
      "effect_text": "                \nUnfurl 2 cards (reveal 2 cards from the top of the Main deck). Add 1 to your play and discard the other. If the added card matches the type MAX VARIABLE is replacing, draw 1 Pluck. Discard MAX VARIABLE.",
      "second_effect_text": "",
      "illustrator": "Dalfovo",
      "picture_url": "https://kornan.dreamhosters.com/i1rb1mvn2/",
      "file_name": "",
      "card_type": [
        "64108e0e159c81c7afebd105"
      ],
      "extra_effects": [],
      "reactions": [],
      "card_tags": [
        "6407ac305139f66679d6ac54"
      ],
      "id": "64130eabb00a31a52c1b98d6",
      "count": null
    },
    {
      "name": "MAX VARIABLE #2",
      "card_class": "",
      "hero_id": "MV1",
      "series_name": "MAX VARIABLE",
      "card_number": 1066,
      "enthusiasm": 0,
      "effect_text": "                \nUnfurl 2 cards (reveal 2 cards from the top of the Main deck). Add 1 to your play and discard the other. If the added card matches the type MAX VARIABLE is replacing, draw 1 Pluck. Discard MAX VARIABLE.",
      "second_effect_text": "",
      "illustrator": "Dalfovo",
      "picture_url": "https://kornan.dreamhosters.com/i1rb1mvn2/",
      "file_name": "",
      "card_type": [
        "64108e0e159c81c7afebd105"
      ],
      "extra_effects": [],
      "reactions": [],
      "card_tags": [
        "6407ac305139f66679d6ac54"
      ],
      "id": "64130eabb00a31a52c1b98d6",
      "count": null
    }
  ],
  [
    {
      "name": "Super Panther Claw",
      "card_class": "",
      "hero_id": "PM1",
      "series_name": "PantheraMan//Nature//Brawler",
      "card_number": 1067,
      "enthusiasm": 0,
      "effect_text": "<Limited> Gain 2 HP.",
      "second_effect_text": "Discard this item; deal 2 piercing damage to a foe who has yet to go this round.",
      "illustrator": "XIOLI",
      "picture_url": "https://kornan.dreamhosters.com/i1pl01pmi",
      "file_name": "",
      "card_type": [
        "64108dee159c81c7afebd104"
      ],
      "extra_effects": [
        "6407aaae5139f66679d6ac52"
      ],
      "reactions": [],
      "card_tags": [
        "64124686d762a869c0b2e12d"
      ],
      "id": "6413b968b00a31a52c1b9c96",
      "count": null
    },
    {
      "name": "Super Panther Claw",
      "card_class": "",
      "hero_id": "PM1",
      "series_name": "PantheraMan//Nature//Brawler",
      "card_number": 1067,
      "enthusiasm": 0,
      "effect_text": "<Limited> Gain 2 HP.",
      "second_effect_text": "Discard this item; deal 2 piercing damage to a foe who has yet to go this round.",
      "illustrator": "XIOLI",
      "picture_url": "https://kornan.dreamhosters.com/i1pl01pmi",
      "file_name": "",
      "card_type": [
        "64108dee159c81c7afebd104"
      ],
      "extra_effects": [
        "6407aaae5139f66679d6ac52"
      ],
      "reactions": [],
      "card_tags": [
        "64124686d762a869c0b2e12d"
      ],
      "id": "6413b968b00a31a52c1b9c96",
      "count": null
    },
    {
      "name": "A Hero’s Entrance",
      "card_class": "",
      "hero_id": "PM1",
      "series_name": "PantheraMan//Nature//Brawler",
      "card_number": 1068,
      "enthusiasm": null,
      "effect_text": "<Trigger> At the start of the round or during a foe's turn, resolve the main effect of 1 Fighter in your play.",
      "second_effect_text": "<C.Trigger> At the start of the round, you go first.",
      "illustrator": "XIOLI",
      "picture_url": "https://kornan.dreamhosters.com/i1pl01pme",
      "file_name": "i1pl01pme",
      "card_type": [
        "640ce4bf5f6730657ad873be"
      ],
      "extra_effects": [
        "64079f10b2b376b6cd0454f6",
        "64079f5db2b376b6cd0454f7"
      ],
      "reactions": [],
      "card_tags": [
        "640ce5e85f6730657ad873cb"
      ],
      "id": "6413ba34b00a31a52c1b9cbf",
      "count": null
    },
    {
      "name": "A Hero’s Entrance",
      "card_class": "",
      "hero_id": "PM1",
      "series_name": "PantheraMan//Nature//Brawler",
      "card_number": 1068,
      "enthusiasm": null,
      "effect_text": "<Trigger> At the start of the round or during a foe's turn, resolve the main effect of 1 Fighter in your play.",
      "second_effect_text": "<C.Trigger> At the start of the round, you go first.",
      "illustrator": "XIOLI",
      "picture_url": "https://kornan.dreamhosters.com/i1pl01pme",
      "file_name": "i1pl01pme",
      "card_type": [
        "640ce4bf5f6730657ad873be"
      ],
      "extra_effects": [
        "64079f10b2b376b6cd0454f6",
        "64079f5db2b376b6cd0454f7"
      ],
      "reactions": [],
      "card_tags": [
        "640ce5e85f6730657ad873cb"
      ],
      "id": "6413ba34b00a31a52c1b9cbf",
      "count": null
    },
    {
      "name": "Bull in a China Shop",
      "card_class": "",
      "hero_id": "RF1",
      "series_name": "Red Fist//Tech//Brawler",
      "card_number": 1083,
      "enthusiasm": null,
      "effect_text": "Draw 3 cards, then discard 1 card from your hand.",
      "second_effect_text": "<Trigger> At the start of the round or during a player’s turn, deal 1 damage to a random foe each time a card(s) is discarded from your hand or removed from your play this round.\n\n\n",
      "illustrator": "gmoshiro",
      "picture_url": "https://kornan.dreamhosters.com/i1pl06rfe",
      "file_name": "i1pl06rfe",
      "card_type": [
        "640ce4bf5f6730657ad873be"
      ],
      "extra_effects": [
        "64079f10b2b376b6cd0454f6"
      ],
      "reactions": [],
      "card_tags": [
        "640ce5e85f6730657ad873cb"
      ],
      "id": "643f5a7b2e72274cabf639ed",
      "count": null
    },
    {
      "name": "Bull in a China Shop",
      "card_class": "",
      "hero_id": "RF1",
      "series_name": "Red Fist//Tech//Brawler",
      "card_number": 1083,
      "enthusiasm": null,
      "effect_text": "Draw 3 cards, then discard 1 card from your hand.",
      "second_effect_text": "<Trigger> At the start of the round or during a player’s turn, deal 1 damage to a random foe each time a card(s) is discarded from your hand or removed from your play this round.\n\n\n",
      "illustrator": "gmoshiro",
      "picture_url": "https://kornan.dreamhosters.com/i1pl06rfe",
      "file_name": "i1pl06rfe",
      "card_type": [
        "640ce4bf5f6730657ad873be"
      ],
      "extra_effects": [
        "64079f10b2b376b6cd0454f6"
      ],
      "reactions": [],
      "card_tags": [
        "640ce5e85f6730657ad873cb"
      ],
      "id": "643f5a7b2e72274cabf639ed",
      "count": null
    },
    {
      "name": "Peaceful Meditation",
      "card_class": "",
      "hero_id": "RF1",
      "series_name": "Red Fist//Tech//Brawler//Relaxation",
      "card_number": 1084,
      "enthusiasm": null,
      "effect_text": "This Comeback counts as a Power card in your play (this does not count towards play size).",
      "second_effect_text": "<Trigger> Draw 3 cards, then discard 1 card from your hand.\n\n\n",
      "illustrator": "gmoshiro",
      "picture_url": "https://kornan.dreamhosters.com/i1cb6rf",
      "file_name": "i1cb6rf",
      "card_type": [
        "64108db9159c81c7afebd103"
      ],
      "extra_effects": [
        "64079f5db2b376b6cd0454f7"
      ],
      "reactions": [],
      "card_tags": [
        "641292cf38b70f477bb72e6f"
      ],
      "id": "643f5ae22e72274cabf639f7",
      "count": null
    },
    {
      "name": "Peaceful Meditation",
      "card_class": "",
      "hero_id": "RF1",
      "series_name": "Red Fist//Tech//Brawler//Relaxation",
      "card_number": 1084,
      "enthusiasm": null,
      "effect_text": "This Comeback counts as a Power card in your play (this does not count towards play size).",
      "second_effect_text": "<Trigger> Draw 3 cards, then discard 1 card from your hand.\n\n\n",
      "illustrator": "gmoshiro",
      "picture_url": "https://kornan.dreamhosters.com/i1cb6rf",
      "file_name": "i1cb6rf",
      "card_type": [
        "64108db9159c81c7afebd103"
      ],
      "extra_effects": [
        "64079f5db2b376b6cd0454f7"
      ],
      "reactions": [],
      "card_tags": [
        "641292cf38b70f477bb72e6f"
      ],
      "id": "643f5ae22e72274cabf639f7",
      "count": null
    },
    {
      "name": "Experimental Dual Mode Thruster",
      "card_class": "",
      "hero_id": "DW1",
      "series_name": "Project HERMES//Tech//Tactical//Team",
      "card_number": 1091,
      "enthusiasm": null,
      "effect_text": "<Trigger> At the start of the round, discard 1 card from your hand; resolve one of the following effects: //<> Add 3 to your Focus this round. //<> Add 3 to your Enthusiasm this round.",
      "second_effect_text": "Discard this Item after the third round of use.",
      "illustrator": "Undeadsushii",
      "picture_url": "https://kornan.dreamhosters.com/i1pl09dwi",
      "file_name": "i1pl09dwi",
      "card_type": [
        "64108dee159c81c7afebd104"
      ],
      "extra_effects": [
        "64079f10b2b376b6cd0454f6"
      ],
      "reactions": [],
      "card_tags": [
        "64124686d762a869c0b2e12d"
      ],
      "id": "6413bba6b00a31a52c1b9d09",
      "count": null
    },
    {
      "name": "Experimental Dual Mode Thruster",
      "card_class": "",
      "hero_id": "DW1",
      "series_name": "Project HERMES//Tech//Tactical//Team",
      "card_number": 1091,
      "enthusiasm": null,
      "effect_text": "<Trigger> At the start of the round, discard 1 card from your hand; resolve one of the following effects: //<> Add 3 to your Focus this round. //<> Add 3 to your Enthusiasm this round.",
      "second_effect_text": "Discard this Item after the third round of use.",
      "illustrator": "Undeadsushii",
      "picture_url": "https://kornan.dreamhosters.com/i1pl09dwi",
      "file_name": "i1pl09dwi",
      "card_type": [
        "64108dee159c81c7afebd104"
      ],
      "extra_effects": [
        "64079f10b2b376b6cd0454f6"
      ],
      "reactions": [],
      "card_tags": [
        "64124686d762a869c0b2e12d"
      ],
      "id": "6413bba6b00a31a52c1b9d09",
      "count": null
    },
    {
      "name": "Project HERMES",
      "card_class": "",
      "hero_id": "DW1",
      "series_name": "Project HERMES//Tech//Tactical//Team",
      "card_number": 1092,
      "enthusiasm": null,
      "effect_text": "Add 1 of the following from their respective discard piles to your hand/ownership: //<>Up to 2 Project cards and 1 Project Pluck except the Event Project HERMES. //<>2 Unity cards. //<>1 MAX VARIABLE and 1 Item.",
      "second_effect_text": "",
      "illustrator": "Undeadsushii",
      "picture_url": "https://kornan.dreamhosters.com/i1pl09dwe",
      "file_name": "i1pl09dwe",
      "card_type": [
        "640ce4bf5f6730657ad873be"
      ],
      "extra_effects": [],
      "reactions": [],
      "card_tags": [
        "640ce5e85f6730657ad873cb"
      ],
      "id": "6413bc36b00a31a52c1b9d24",
      "count": null
    },
    {
      "name": "Project HERMES",
      "card_class": "",
      "hero_id": "DW1",
      "series_name": "Project HERMES//Tech//Tactical//Team",
      "card_number": 1092,
      "enthusiasm": null,
      "effect_text": "Add 1 of the following from their respective discard piles to your hand/ownership: //<>Up to 2 Project cards and 1 Project Pluck except the Event Project HERMES. //<>2 Unity cards. //<>1 MAX VARIABLE and 1 Item.",
      "second_effect_text": "",
      "illustrator": "Undeadsushii",
      "picture_url": "https://kornan.dreamhosters.com/i1pl09dwe",
      "file_name": "i1pl09dwe",
      "card_type": [
        "640ce4bf5f6730657ad873be"
      ],
      "extra_effects": [],
      "reactions": [],
      "card_tags": [
        "640ce5e85f6730657ad873cb"
      ],
      "id": "6413bc36b00a31a52c1b9d24",
      "count": null
    },
    {
      "name": "Infinite Storage Space",
      "card_class": "",
      "hero_id": "HS1",
      "series_name": "Warp Family//Cosmic//Cyber",
      "card_number": 1097,
      "enthusiasm": null,
      "effect_text": "<Limited> Draw 1 Pluck.",
      "second_effect_text": "",
      "illustrator": "Undeadsushii",
      "picture_url": "https://kornan.dreamhosters.com/i1pl11hsi",
      "file_name": "i1pl11hsi",
      "card_type": [
        "64108dee159c81c7afebd104"
      ],
      "extra_effects": [
        "6407aaae5139f66679d6ac52"
      ],
      "reactions": [],
      "card_tags": [
        "64124686d762a869c0b2e12d"
      ],
      "id": "64400a342e72274cabf63ceb",
      "count": null
    },
    {
      "name": "Infinite Storage Space",
      "card_class": "",
      "hero_id": "HS1",
      "series_name": "Warp Family//Cosmic//Cyber",
      "card_number": 1097,
      "enthusiasm": null,
      "effect_text": "<Limited> Draw 1 Pluck.",
      "second_effect_text": "",
      "illustrator": "Undeadsushii",
      "picture_url": "https://kornan.dreamhosters.com/i1pl11hsi",
      "file_name": "i1pl11hsi",
      "card_type": [
        "64108dee159c81c7afebd104"
      ],
      "extra_effects": [
        "6407aaae5139f66679d6ac52"
      ],
      "reactions": [],
      "card_tags": [
        "64124686d762a869c0b2e12d"
      ],
      "id": "64400a342e72274cabf63ceb",
      "count": null
    },
    {
      "name": "“Port!”",
      "card_class": "",
      "hero_id": "HS1",
      "series_name": "Warp Family//Cosmic//Cyber//Call",
      "card_number": 1098,
      "enthusiasm": null,
      "effect_text": "Unfurl 3 cards; add 1 Warp Family series card and 1 Canny card to your hand. Discard the other unfurled cards.",
      "second_effect_text": "Add 1 random Warp Family series card or random 1 Canny card from your hand to your play.",
      "illustrator": "Undeadsushii",
      "picture_url": "https://kornan.dreamhosters.com/i1pl11hse",
      "file_name": "i1pl11hse",
      "card_type": [
        "640ce4bf5f6730657ad873be"
      ],
      "extra_effects": [],
      "reactions": [],
      "card_tags": [
        "640ce5e85f6730657ad873cb"
      ],
      "id": "64400a8f2e72274cabf63cf2",
      "count": null
    },
    {
      "name": "“Port!”",
      "card_class": "",
      "hero_id": "HS1",
      "series_name": "Warp Family//Cosmic//Cyber//Call",
      "card_number": 1098,
      "enthusiasm": null,
      "effect_text": "Unfurl 3 cards; add 1 Warp Family series card and 1 Canny card to your hand. Discard the other unfurled cards.",
      "second_effect_text": "Add 1 random Warp Family series card or random 1 Canny card from your hand to your play.",
      "illustrator": "Undeadsushii",
      "picture_url": "https://kornan.dreamhosters.com/i1pl11hse",
      "file_name": "i1pl11hse",
      "card_type": [
        "640ce4bf5f6730657ad873be"
      ],
      "extra_effects": [],
      "reactions": [],
      "card_tags": [
        "640ce5e85f6730657ad873cb"
      ],
      "id": "64400a8f2e72274cabf63cf2",
      "count": null
    },
    {
      "name": "New Growth",
      "card_class": "",
      "hero_id": "BB1",
      "series_name": "Bolt Blossom//Nature//Energy",
      "card_number": 1102,
      "enthusiasm": null,
      "effect_text": "Add 2 to the Focus of the next card in your play. ",
      "second_effect_text": "<Critical> Add the top card of the Main deck to your play.",
      "illustrator": "Filippo Scalisi",
      "picture_url": "https://kornan.dreamhosters.com/i1cb12bb",
      "file_name": "i1cb12bb",
      "card_type": [
        "64108db9159c81c7afebd103"
      ],
      "extra_effects": [
        "64079f5db2b376b6cd0454f7"
      ],
      "reactions": [],
      "card_tags": [
        "641292cf38b70f477bb72e6f"
      ],
      "id": "641425ffb00a31a52c1ba073",
      "count": null
    },
    {
      "name": "New Growth",
      "card_class": "",
      "hero_id": "BB1",
      "series_name": "Bolt Blossom//Nature//Energy",
      "card_number": 1102,
      "enthusiasm": null,
      "effect_text": "Add 2 to the Focus of the next card in your play. ",
      "second_effect_text": "<Critical> Add the top card of the Main deck to your play.",
      "illustrator": "Filippo Scalisi",
      "picture_url": "https://kornan.dreamhosters.com/i1cb12bb",
      "file_name": "i1cb12bb",
      "card_type": [
        "64108db9159c81c7afebd103"
      ],
      "extra_effects": [
        "64079f5db2b376b6cd0454f7"
      ],
      "reactions": [],
      "card_tags": [
        "641292cf38b70f477bb72e6f"
      ],
      "id": "641425ffb00a31a52c1ba073",
      "count": null
    },
    {
      "name": "An Opening to Their Blindspot",
      "card_class": "",
      "hero_id": "P01",
      "series_name": "Warp Family//Cosmic//Cyber",
      "card_number": 1106,
      "enthusiasm": null,
      "effect_text": "Once per round, deal 1 bypassing damage to a foe. If you have a Canny Fighter in your play, you can resolve this Item one more time.",
      "second_effect_text": "",
      "illustrator": "Undeadsushii",
      "picture_url": "https://kornan.dreamhosters.com/i1pl14pi",
      "file_name": "i1pl14pi",
      "card_type": [
        "64108dee159c81c7afebd104"
      ],
      "extra_effects": [],
      "reactions": [],
      "card_tags": [
        "64124686d762a869c0b2e12d"
      ],
      "id": "64400c802e72274cabf63daf",
      "count": null
    },
    {
      "name": "An Opening to Their Blindspot",
      "card_class": "",
      "hero_id": "P01",
      "series_name": "Warp Family//Cosmic//Cyber",
      "card_number": 1106,
      "enthusiasm": null,
      "effect_text": "Once per round, deal 1 bypassing damage to a foe. If you have a Canny Fighter in your play, you can resolve this Item one more time.",
      "second_effect_text": "",
      "illustrator": "Undeadsushii",
      "picture_url": "https://kornan.dreamhosters.com/i1pl14pi",
      "file_name": "i1pl14pi",
      "card_type": [
        "64108dee159c81c7afebd104"
      ],
      "extra_effects": [],
      "reactions": [],
      "card_tags": [
        "64124686d762a869c0b2e12d"
      ],
      "id": "64400c802e72274cabf63daf",
      "count": null
    },
    {
      "name": "“Hammer!”",
      "card_class": "",
      "hero_id": "P01",
      "series_name": "Warp Family//Cosmic//Cyber//Call",
      "card_number": 1107,
      "enthusiasm": null,
      "effect_text": "Unfurl 3 cards; add 1 Warp Family series card and 1 Unity card to your hand. Discard the other unfurled cards.",
      "second_effect_text": "Add 1 random Warp Family series card or 1 random Unity card from your hand to your play.",
      "illustrator": "Undeadsushii",
      "picture_url": "https://kornan.dreamhosters.com/i1pl14pe",
      "file_name": "i1pl14pe",
      "card_type": [
        "640ce4bf5f6730657ad873be"
      ],
      "extra_effects": [],
      "reactions": [],
      "card_tags": [
        "640ce5e85f6730657ad873cb"
      ],
      "id": "64400cda2e72274cabf63db6",
      "count": null
    },
    {
      "name": "“Hammer!”",
      "card_class": "",
      "hero_id": "P01",
      "series_name": "Warp Family//Cosmic//Cyber//Call",
      "card_number": 1107,
      "enthusiasm": null,
      "effect_text": "Unfurl 3 cards; add 1 Warp Family series card and 1 Unity card to your hand. Discard the other unfurled cards.",
      "second_effect_text": "Add 1 random Warp Family series card or 1 random Unity card from your hand to your play.",
      "illustrator": "Undeadsushii",
      "picture_url": "https://kornan.dreamhosters.com/i1pl14pe",
      "file_name": "i1pl14pe",
      "card_type": [
        "640ce4bf5f6730657ad873be"
      ],
      "extra_effects": [],
      "reactions": [],
      "card_tags": [
        "640ce5e85f6730657ad873cb"
      ],
      "id": "64400cda2e72274cabf63db6",
      "count": null
    },
    {
      "name": "Max Variable’s Variable Box",
      "card_class": "",
      "hero_id": "MV1",
      "series_name": "MAX VARIABLE",
      "card_number": 1115,
      "enthusiasm": 0,
      "effect_text": "Once per round, if a MAX VARIABLE(s) in any play resolves, roll a die and apply 1 of the following effects based on the result://<1> Gain 1 HP. //<2-3> 1 random card in your play gains damage plus 1. //<4-5> Discard 1 card from your hand; draw 1 Pluck. //<6> Deal 2 damage to all foes, then discard this Item. //Discard this Item after the fourth round of use.",
      "second_effect_text": "",
      "illustrator": "mvthwus",
      "picture_url": "https://kornan.dreamhosters.com/i1plg1i",
      "file_name": "i1plg1i",
      "card_type": [
        "64108dee159c81c7afebd104"
      ],
      "extra_effects": [],
      "reactions": [],
      "card_tags": [
        "64124686d762a869c0b2e12d"
      ],
      "id": "64133bbbb00a31a52c1b9ad0",
      "count": null
    },
    {
      "name": "Max Variable’s Variable Box",
      "card_class": "",
      "hero_id": "MV1",
      "series_name": "MAX VARIABLE",
      "card_number": 1115,
      "enthusiasm": 0,
      "effect_text": "Once per round, if a MAX VARIABLE(s) in any play resolves, roll a die and apply 1 of the following effects based on the result://<1> Gain 1 HP. //<2-3> 1 random card in your play gains damage plus 1. //<4-5> Discard 1 card from your hand; draw 1 Pluck. //<6> Deal 2 damage to all foes, then discard this Item. //Discard this Item after the fourth round of use.",
      "second_effect_text": "",
      "illustrator": "mvthwus",
      "picture_url": "https://kornan.dreamhosters.com/i1plg1i",
      "file_name": "i1plg1i",
      "card_type": [
        "64108dee159c81c7afebd104"
      ],
      "extra_effects": [],
      "reactions": [],
      "card_tags": [
        "64124686d762a869c0b2e12d"
      ],
      "id": "64133bbbb00a31a52c1b9ad0",
      "count": null
    },
    {
      "name": "Swiss Army Knife",
      "card_class": "",
      "hero_id": "GEN",
      "series_name": "n/a",
      "card_number": 1119,
      "enthusiasm": null,
      "effect_text": "<Limited> This Item counts as a Unity card in your play this round (this does not count towards play size).",
      "second_effect_text": "Discard this Item; draw 1 Pluck.",
      "illustrator": "prusin_senpai",
      "picture_url": "https://kornan.dreamhosters.com/i1plg7i",
      "file_name": "i1plg7i",
      "card_type": [
        "64108dee159c81c7afebd104"
      ],
      "extra_effects": [
        "6407aaae5139f66679d6ac52"
      ],
      "reactions": [],
      "card_tags": [
        "64124686d762a869c0b2e12d"
      ],
      "id": "644010532e72274cabf63e2a",
      "count": null
    },
    {
      "name": "Swiss Army Knife",
      "card_class": "",
      "hero_id": "GEN",
      "series_name": "n/a",
      "card_number": 1119,
      "enthusiasm": null,
      "effect_text": "<Limited> This Item counts as a Unity card in your play this round (this does not count towards play size).",
      "second_effect_text": "Discard this Item; draw 1 Pluck.",
      "illustrator": "prusin_senpai",
      "picture_url": "https://kornan.dreamhosters.com/i1plg7i",
      "file_name": "i1plg7i",
      "card_type": [
        "64108dee159c81c7afebd104"
      ],
      "extra_effects": [
        "6407aaae5139f66679d6ac52"
      ],
      "reactions": [],
      "card_tags": [
        "64124686d762a869c0b2e12d"
      ],
      "id": "644010532e72274cabf63e2a",
      "count": null
    },
    {
      "name": "Off Duty",
      "card_class": "",
      "hero_id": "GEN",
      "series_name": "Mystic//Nature//Relaxation",
      "card_number": 1122,
      "enthusiasm": null,
      "effect_text": "Players can not use the effects of Fighters or reactions. You can not resolve this Event if you defended with a Fighter, resolved the effects of a Fighter(s) or used a reaction(s) this round.",
      "second_effect_text": "",
      "illustrator": "betomirandaart2",
      "picture_url": "https://kornan.dreamhosters.com/i1plg4e",
      "file_name": "i1plg4e",
      "card_type": [
        "640ce4bf5f6730657ad873be"
      ],
      "extra_effects": [],
      "reactions": [],
      "card_tags": [
        "640ce5e85f6730657ad873cb"
      ],
      "id": "6413c1d3b00a31a52c1b9e74",
      "count": null
    },
    {
      "name": "Off Duty",
      "card_class": "",
      "hero_id": "GEN",
      "series_name": "Mystic//Nature//Relaxation",
      "card_number": 1122,
      "enthusiasm": null,
      "effect_text": "Players can not use the effects of Fighters or reactions. You can not resolve this Event if you defended with a Fighter, resolved the effects of a Fighter(s) or used a reaction(s) this round.",
      "second_effect_text": "",
      "illustrator": "betomirandaart2",
      "picture_url": "https://kornan.dreamhosters.com/i1plg4e",
      "file_name": "i1plg4e",
      "card_type": [
        "640ce4bf5f6730657ad873be"
      ],
      "extra_effects": [],
      "reactions": [],
      "card_tags": [
        "640ce5e85f6730657ad873cb"
      ],
      "id": "6413c1d3b00a31a52c1b9e74",
      "count": null
    },
    {
      "name": "The Star-Cat Alliance",
      "card_class": "",
      "hero_id": "GEN",
      "series_name": "Cosmic//Nature//Team",
      "card_number": 1123,
      "enthusiasm": null,
      "effect_text": "<Trigger> At the start of a round, gain 1 HP and add 2 to your Enthusiasm.",
      "second_effect_text": "<Critical> The foe with the lowest enthusiasm discards 2 cards from their hand.",
      "illustrator": "betomirandaart2",
      "picture_url": "https://kornan.dreamhosters.com/i1cb17g",
      "file_name": "i1cb17g",
      "card_type": [
        "64108db9159c81c7afebd103"
      ],
      "extra_effects": [
        "64079f10b2b376b6cd0454f6",
        "64079f5db2b376b6cd0454f7"
      ],
      "reactions": [],
      "card_tags": [
        "641292cf38b70f477bb72e6f"
      ],
      "id": "6413c0c4b00a31a52c1b9e32",
      "count": null
    },
    {
      "name": "The Star-Cat Alliance",
      "card_class": "",
      "hero_id": "GEN",
      "series_name": "Cosmic//Nature//Team",
      "card_number": 1123,
      "enthusiasm": null,
      "effect_text": "<Trigger> At the start of a round, gain 1 HP and add 2 to your Enthusiasm.",
      "second_effect_text": "<Critical> The foe with the lowest enthusiasm discards 2 cards from their hand.",
      "illustrator": "betomirandaart2",
      "picture_url": "https://kornan.dreamhosters.com/i1cb17g",
      "file_name": "i1cb17g",
      "card_type": [
        "64108db9159c81c7afebd103"
      ],
      "extra_effects": [
        "64079f10b2b376b6cd0454f6",
        "64079f5db2b376b6cd0454f7"
      ],
      "reactions": [],
      "card_tags": [
        "641292cf38b70f477bb72e6f"
      ],
      "id": "6413c0c4b00a31a52c1b9e32",
      "count": null
    }
  ],
  []
]